<?xml version="1.0" encoding="UTF-8" standalone="no"?>
<!-- Created with Inkscape (http://www.inkscape.org/) -->

<svg
   id="svg2"
   version="1.1"
   inkscape:version="1.2.2 (b0a8486541, 2022-12-01)"
   width="3840"
   height="3840"
   sodipodi:docname="2024-06-03_common-fix.svg"
   xmlns:inkscape="http://www.inkscape.org/namespaces/inkscape"
   xmlns:sodipodi="http://sodipodi.sourceforge.net/DTD/sodipodi-0.dtd"
   xmlns:xlink="http://www.w3.org/1999/xlink"
   xmlns="http://www.w3.org/2000/svg"
   xmlns:svg="http://www.w3.org/2000/svg"
   xmlns:rdf="http://www.w3.org/1999/02/22-rdf-syntax-ns#"
   xmlns:cc="http://creativecommons.org/ns#"
   xmlns:dc="http://purl.org/dc/elements/1.1/">
  <metadata
     id="metadata8">
    <rdf:RDF>
      <cc:Work
         rdf:about="">
        <dc:format>image/svg+xml</dc:format>
        <dc:type
           rdf:resource="http://purl.org/dc/dcmitype/StillImage" />
        <dc:title />
      </cc:Work>
    </rdf:RDF>
  </metadata>
  <defs
     id="defs6">
    <rect
       x="931.53589"
       y="836.4812"
       width="491.19501"
       height="549.05487"
       id="rect3-9-7" />
    <rect
       x="931.53589"
       y="836.4812"
       width="706.14728"
       height="489.89364"
       id="rect3-9-7-3" />
  </defs>
  <sodipodi:namedview
     pagecolor="#444444"
     bordercolor="#000000"
     borderopacity="1"
     objecttolerance="10"
     gridtolerance="10"
     guidetolerance="10"
     inkscape:pageopacity="0"
     inkscape:pageshadow="2"
     inkscape:window-width="1920"
     inkscape:window-height="1050"
     id="namedview4"
     showgrid="false"
     inkscape:zoom="0.3478261"
     inkscape:cx="2068.5624"
     inkscape:cy="2105.9374"
     inkscape:window-x="1920"
     inkscape:window-y="0"
     inkscape:window-maximized="1"
     inkscape:current-layer="layer1"
     inkscape:showpageshadow="0"
     inkscape:pagecheckerboard="0"
     inkscape:deskcolor="#d1d1d1" />
  <g
     inkscape:groupmode="layer"
     id="layer2"
     inkscape:label="artwork"
     sodipodi:insensitive="true">
    <image
       xlink:href="../006.jpg"
       y="0"
       x="0"
       id="2024-06-03_common-fix"
       height="3840"
       width="3840" />
  </g>
  <g
     inkscape:groupmode="layer"
     id="layer3"
     inkscape:label="speechbubbles">
    <path
       style="fill:#ffffff;stroke:none;stroke-width:0.999997"
       d="m 1073.4137,2501.8753 c -48.0708,-4.7082 -99.17464,1.7724 -140.41586,28.4426 -26.12031,16.3331 -37.30621,49.7801 -32.47368,79.3526 3.81255,27.8001 22.30473,51.8239 45.90629,66.2017 26.48063,16.7712 58.20155,21.8844 88.97165,23.6148 51.6214,3.494 104.3426,-0.5468 153.7294,-16.5912 21.8635,-9.0121 33.4649,-32.5655 36.9484,-54.7981 6.1632,-38.5114 -12.7939,-79.4219 -45.9915,-99.8189 -17.417,-10.7947 -37.6752,-15.7258 -57.5037,-19.9895 -16.237,-3.1693 -32.7057,-4.942 -49.171,-6.414 z"
       id="path3280-81"
       inkscape:connector-curvature="0"
       sodipodi:nodetypes="csssc" />
    <path
       style="fill:#ffffff;stroke:none;stroke-width:1"
       d="m 1136.5585,2865.6904 c -12.3723,-31.8736 -22.3234,-62.9788 -14.874,-79.8585 7.4497,-16.8814 16.3177,-31.36 10.7844,-42.5738 -5.533,-11.2137 -19.0944,-22.1967 -30.2915,-29.1757 -11.1973,-6.979 0.8936,-17.3374 3.3409,-29.7863 2.4467,-12.4473 -11.2585,-81.3294 -11.2585,-81.3294 0,0 -33.2652,40.4522 -38.8266,55.9215 -5.5619,15.4692 -7.683,21.0951 -8.0091,27.9181 -0.3252,6.8213 1.5754,23.8673 11.1689,33.662 9.594,9.793 23.5287,14.9574 32.5058,20.9407 8.9768,5.985 5.2429,20.0045 2.6553,34.058 -2.5877,14.0536 -0.2098,32.0469 12.4126,54.3443 6.2806,11.0946 28.5928,34.0719 30.3918,35.8791 z"
       id="path3023-4"
       inkscape:connector-curvature="0"
       sodipodi:nodetypes="csssscssssssc" />
  </g>
  <g
     inkscape:groupmode="layer"
     id="layer1"
     inkscape:label="txt">
    <text
       id="shape013"
       text-rendering="auto"
       fill="#000000"
       stroke-opacity="0"
       stroke="#000000"
       stroke-width="0"
       stroke-linecap="square"
       stroke-linejoin="bevel"
       letter-spacing="0"
       text-anchor="middle"
       word-spacing="0"
       style="font-size:123.063px;font-family:'Grand Hotel';text-align:start;display:inline"
       x="175.27139"
       y="3776.3242"
       inkscape:label="Credit-Title"><tspan
         x="588.22894"
         id="tspan1"
         style="stroke-width:0">Mini Fantasy Theater</tspan></text>
    <text
       id="shape2"
       text-rendering="auto"
       fill="#000000"
       stroke-opacity="0"
       stroke="#000000"
       stroke-width="0"
       stroke-linecap="square"
       stroke-linejoin="bevel"
       letter-spacing="0"
       text-anchor="end"
       word-spacing="0"
       style="font-size:73.8377px;font-family:Pangolin;text-align:start;display:inline"
       x="3040.1685"
       y="3736.7832"
       inkscape:label="Credit-Name"><tspan
         x="3680.696"
         id="tspan2"
         style="stroke-width:0">David Revoy</tspan><tspan
         x="3680.696"
         dy="73.837677"
         id="tspan3"
         style="stroke-width:0">www.davidrevoy.com</tspan></text>
    <text
       id="shape21"
       text-rendering="auto"
       fill="#8e8b88"
       stroke-opacity="0"
       stroke="#000000"
       stroke-width="0"
       stroke-linecap="square"
       stroke-linejoin="bevel"
       letter-spacing="0"
       text-anchor="end"
       word-spacing="0"
       style="font-size:45px;line-height:100%;font-family:Pangolin;text-align:start;display:inline"
       x="1167.5646"
       y="3778.4343"
       inkscape:label="Credit-License"><tspan
         sodipodi:role="line"
         id="tspan10"
         x="1922.5271"
         y="3778.4343"
         style="font-size:45px;line-height:100%;text-align:center;text-anchor:middle"><tspan
           x="1922.5271"
           id="tspan4"
           style="font-size:45px;line-height:100%;text-align:center;text-anchor:middle;stroke-width:0">license: Creative Commons Attribution-ShareAlike 4.0 International</tspan></tspan></text>
    <text
       id="shape22"
       text-rendering="auto"
       fill="#828181"
       stroke-opacity="0"
       stroke="#000000"
       stroke-width="0"
       stroke-linecap="square"
       stroke-linejoin="bevel"
       kerning="none"
       letter-spacing="0"
       text-anchor="middle"
       word-spacing="0"
       style="font-size:73.8377px;font-family:'Patrick Hand SC';text-align:start;display:inline"
       x="1701.0232"
       y="3732.3135"
       inkscape:label="Credit-ID"><tspan
         x="1922.2478"
         id="tspan5"
         style="stroke-width:0">Episode 6</tspan></text>
    <text
       xml:space="preserve"
       id="text1-3-9"
       style="color:#000000;font-weight:bold;font-size:93px;line-height:1.0;font-family:DeevadHand;-inkscape-font-specification:'DeevadHand Bold';text-align:center;text-decoration:none;text-decoration-line:none;text-decoration-color:#000000;letter-spacing:0px;word-spacing:0px;white-space:pre;shape-inside:url(#rect3-9-7);display:inline;overflow:visible;fill:#000000;stroke:none;stroke-width:10.8588;paint-order:stroke fill markers"
       x="902.68744"
       y="0"
       transform="matrix(1.4890241,0,0,1.4890241,-684.64214,1269.7811)"><tspan
         x="1139.5918"
         y="913.84688"
         id="tspan455"><tspan
           style="font-weight:normal;-inkscape-font-specification:DeevadHand"
           id="tspan453">...</tspan></tspan></text>
    <path
       style="color:#000000;display:inline;overflow:visible;visibility:visible;fill:#ffffff;fill-opacity:1;fill-rule:nonzero;stroke:none;stroke-width:1px;marker:none;enable-background:accumulate"
       d="m 2445.1228,2279.1971 c 12.1651,-142.2671 148.5021,-245.4446 500.7752,-216.152 188.6962,15.6904 403.0158,26.6272 387.3857,235.0541 -15.6305,208.4265 -323.7425,200.8694 -387.3973,205.2925 -63.6548,4.4233 -394.8146,-19.8061 -452.1984,-91.1526 -35.9211,-44.6606 -49.9517,-88.964 -48.5652,-133.042 z"
       id="path4546-6"
       inkscape:connector-curvature="0"
       sodipodi:nodetypes="cssssc" />
    <text
       xml:space="preserve"
       id="text1-3-9-6"
       style="color:#000000;font-weight:bold;font-size:93px;line-height:1.0;font-family:DeevadHand;-inkscape-font-specification:'DeevadHand Bold';text-align:center;text-decoration:none;text-decoration-line:none;text-decoration-color:#000000;letter-spacing:0px;word-spacing:0px;white-space:pre;shape-inside:url(#rect3-9-7-3);display:inline;overflow:visible;fill:#000000;stroke:none;stroke-width:16.169;paint-order:stroke fill markers"
       x="902.68744"
       y="0"
       transform="translate(1602.2038,1306.4671)"><tspan
         x="948.67188"
         y="913.84688"
         id="tspan459"><tspan
           style="font-weight:normal;-inkscape-font-specification:DeevadHand"
           id="tspan457">Have you tried </tspan></tspan><tspan
         x="961.05957"
         y="1008.4469"
         id="tspan463"><tspan
           style="font-weight:normal;-inkscape-font-specification:DeevadHand"
           id="tspan461">turning it off </tspan></tspan><tspan
         x="967.98828"
         y="1103.0468"
         id="tspan467"><tspan
           style="font-weight:normal;-inkscape-font-specification:DeevadHand"
           id="tspan465">and on again?</tspan></tspan></text>
    <path
       style="color:#000000;display:inline;overflow:visible;visibility:visible;fill:#ffffff;fill-opacity:1;fill-rule:nonzero;stroke:none;stroke-width:1.06532px;marker:none;enable-background:accumulate"
       d="m 2693.7671,2409.2317 c -15.2856,238.2414 47.2688,425.4848 213.9734,508.1503 -126.0308,-72.1614 -205.7531,-326.4047 -128.1172,-435.2703 6.4087,-8.9869 1.1786,-18.1516 1.1786,-18.1516 z"
       id="path4440-13"
       inkscape:connector-curvature="0"
       sodipodi:nodetypes="ccscc" />
  </g>
</svg>
