<?xml version="1.0" encoding="UTF-8" standalone="no"?>
<!-- Created with Inkscape (http://www.inkscape.org/) -->

<svg
   id="svg2"
   version="1.1"
   inkscape:version="1.3.2 (091e20ef0f, 2023-11-25, custom)"
   width="3840"
   height="3840"
   sodipodi:docname="002.svg"
   inkscape:export-filename="2024-04-26_monsterC.png"
   inkscape:export-xdpi="90"
   inkscape:export-ydpi="90"
   xmlns:inkscape="http://www.inkscape.org/namespaces/inkscape"
   xmlns:sodipodi="http://sodipodi.sourceforge.net/DTD/sodipodi-0.dtd"
   xmlns:xlink="http://www.w3.org/1999/xlink"
   xmlns="http://www.w3.org/2000/svg"
   xmlns:svg="http://www.w3.org/2000/svg"
   xmlns:rdf="http://www.w3.org/1999/02/22-rdf-syntax-ns#"
   xmlns:cc="http://creativecommons.org/ns#"
   xmlns:dc="http://purl.org/dc/elements/1.1/"
   xmlns:krita="http://krita.org/namespaces/svg/krita">
  <metadata
     id="metadata8">
    <rdf:RDF>
      <cc:Work
         rdf:about="">
        <dc:format>image/svg+xml</dc:format>
        <dc:type
           rdf:resource="http://purl.org/dc/dcmitype/StillImage" />
        <dc:title />
      </cc:Work>
    </rdf:RDF>
  </metadata>
  <defs
     id="defs6">
    <rect
       x="931.53591"
       y="836.48123"
       width="934.27789"
       height="376.3721"
       id="rect3" />
    <rect
       x="3093.4999"
       y="721.62498"
       width="514.62499"
       height="129.375"
       id="rect2" />
    <rect
       x="3201.4418"
       y="2543.6634"
       width="372.61436"
       height="140.68093"
       id="rect1" />
    <rect
       x="3201.4419"
       y="2543.6633"
       width="372.61435"
       height="140.68092"
       id="rect1-3" />
    <rect
       x="3201.4419"
       y="2543.6633"
       width="372.61435"
       height="140.68092"
       id="rect1-3-7" />
    <rect
       x="3093.5"
       y="721.625"
       width="514.625"
       height="129.375"
       id="rect2-5" />
    <rect
       x="3093.5"
       y="721.625"
       width="514.625"
       height="129.375"
       id="rect2-5-1" />
    <rect
       x="3093.5"
       y="721.625"
       width="514.625"
       height="129.375"
       id="rect2-5-9" />
    <rect
       x="931.53589"
       y="836.4812"
       width="927.7337"
       height="475.27341"
       id="rect3-3" />
    <rect
       x="931.53589"
       y="836.4812"
       width="1106.0352"
       height="723.56343"
       id="rect3-9" />
    <rect
       x="931.53589"
       y="836.4812"
       width="470.60044"
       height="631.95737"
       id="rect3-3-0" />
    <filter
       style="color-interpolation-filters:sRGB"
       id="filter3018-3-2-2-7-3"
       inkscape:label="Lapping"
       inkscape:menu="Distort"
       inkscape:menu-tooltip="Something like a water noise"
       height="1.0580372"
       y="-0.029018599"
       width="1.0174004"
       x="-0.0087002209">
      <feTurbulence
         id="feTurbulence3020-6-9-0-4-7"
         numOctaves="6"
         seed="0"
         type="turbulence"
         baseFrequency="0.0704375"
         result="result1" />
      <feGaussianBlur
         id="feGaussianBlur3022-7-1-2-4-5"
         stdDeviation="2 9.5259999999999998"
         result="result2"
         baseFrequency="7.0949999999999998" />
      <feDisplacementMap
         id="feDisplacementMap3024-5-2-3-3-9"
         in2="result2"
         scale="100"
         yChannelSelector="B"
         xChannelSelector="R"
         in="SourceGraphic" />
    </filter>
    <filter
       style="color-interpolation-filters:sRGB"
       id="filter1"
       inkscape:label="filter2" />
  </defs>
  <sodipodi:namedview
     pagecolor="#444444"
     bordercolor="#000000"
     borderopacity="1"
     objecttolerance="10"
     gridtolerance="10"
     guidetolerance="10"
     inkscape:pageopacity="0"
     inkscape:pageshadow="2"
     inkscape:window-width="1888"
     inkscape:window-height="1144"
     id="namedview4"
     showgrid="false"
     inkscape:zoom="0.34390916"
     inkscape:cx="1935.104"
     inkscape:cy="2958.6301"
     inkscape:window-x="32"
     inkscape:window-y="0"
     inkscape:window-maximized="1"
     inkscape:current-layer="layer1"
     inkscape:showpageshadow="0"
     inkscape:pagecheckerboard="0"
     inkscape:deskcolor="#d1d1d1" />
  <g
     inkscape:groupmode="layer"
     id="layer2"
     inkscape:label="artwork"
     sodipodi:insensitive="true">
    <image
       xlink:href="../002.jpg"
       y="0"
       x="0"
       id="2024-04-21_morning-routine"
       height="3840"
       width="3840" />
  </g>
  <g
     inkscape:groupmode="layer"
     id="layer3"
     inkscape:label="speechbubbles"
     style="display:inline">
    <path
       style="color:#000000;display:inline;overflow:visible;visibility:visible;fill:#ffffff;fill-opacity:1;fill-rule:nonzero;stroke:none;stroke-width:1.07595px;marker:none;enable-background:accumulate"
       d="m 1250.348,348.08999 c -130.0179,0.058 -260.82341,-1.31309 -389.64186,18.69328 -44.24757,6.94956 -88.61621,21.9144 -123.03491,51.08234 -35.98276,30.49673 -57.5086,74.91953 -65.86854,120.45842 -8.17365,39.64954 -5.80925,82.6173 13.15531,119.0582 28.39083,57.17001 85.13872,98.6538 147.80431,112.24409 49.70977,10.38438 100.32931,15.42715 150.68923,21.6381 68.00286,7.22161 136.58856,8.61858 204.87196,5.01403 70.4643,-3.03001 140.8405,-7.72061 211.2368,-11.95867 41.1743,-2.83704 82.6564,-5.24109 122.9769,-14.50214 43.8934,-10.26226 86.8727,-28.30291 120.942,-58.02185 32.6674,-29.34224 48.1272,-73.81812 47.6762,-116.7451 0.2295,-54.25667 -17.4256,-110.04788 -55.4667,-150.13431 -34.3067,-35.86343 -79.8463,-59.9886 -127.7858,-72.92106 -83.4253,-24.22415 -171.396,-24.26701 -257.5549,-23.90533 z"
       id="path4546-6-2"
       inkscape:connector-curvature="0"
       sodipodi:nodetypes="cssssssscc" />
    <path
       style="color:#000000;display:inline;overflow:visible;visibility:visible;fill:#0f0f0f;fill-opacity:1;fill-rule:nonzero;stroke:none;stroke-width:1.00113px;marker:none;enable-background:accumulate"
       d="m 1985.1371,634.40479 c 5.8407,-105.99896 21.3168,-175.83295 71.9964,-205.54649 155.6438,-91.25427 358.7961,-48.15415 412.9368,-9.56887 147.2587,104.94898 107.4076,218.93517 69.4843,314.63459 -18.3404,46.28216 -76.751,83.35534 -145.9361,91.31975 -104.476,12.0271 -218.8418,8.87675 -278.1392,-12.33749 -83.3107,-29.80524 -113.4817,-90.75397 -130.3422,-178.50149 z"
       id="path3986-3-7-0"
       inkscape:connector-curvature="0"
       sodipodi:nodetypes="csssssc" />
    <path
       style="color:#000000;display:inline;overflow:visible;visibility:visible;fill:#0f0f0f;fill-opacity:1;fill-rule:nonzero;stroke:none;stroke-width:0.932097px;marker:none;enable-background:accumulate"
       d="m 173.85928,2681.4135 c 5.99409,-100.128 21.87749,-166.0943 73.89068,-194.1622 159.73924,-86.2 368.23687,-45.487 423.80207,-9.0388 151.13355,99.1364 110.23384,206.8095 71.31275,297.2084 -18.823,43.7189 -78.77053,78.7387 -149.77598,86.2619 -107.22515,11.361 -224.60015,8.3851 -285.45786,-11.6541 -85.50273,-28.1544 -116.46754,-85.7275 -133.77166,-168.6152 z"
       id="path3986-3-7-0-7"
       inkscape:connector-curvature="0"
       sodipodi:nodetypes="csssssc" />
    <path
       style="color:#000000;display:inline;overflow:visible;visibility:visible;fill:#ffffff;fill-opacity:1;fill-rule:nonzero;stroke:none;stroke-width:1.02904px;marker:none;enable-background:accumulate"
       d="m 3048.1719,1111.6535 c -117.2992,0.2745 -236.5178,15.7159 -345.3305,63.7248 -52.2141,22.2293 -88.4149,74.3344 -103.1299,130.0645 -27.3135,102.0977 -23.235,216.9742 27.0939,310.7478 42.2419,76.2166 116.697,129.0094 196.9761,152.2131 144.0269,42.4775 295.9983,43.9589 443.9176,28.026 77.7153,-7.8318 157.5475,-9.8307 231.5387,-38.7213 70.3186,-28.4064 122.9688,-95.5429 142.1664,-171.0867 21.7876,-77.1634 22.5034,-158.9779 15.2732,-238.5031 -4.061,-40.89 -13.0437,-83.8457 -40.1955,-115.2005 -38.2083,-46.1996 -94.529,-68.9517 -148.9082,-86.4614 -63.0522,-20.3112 -128.9492,-29.5428 -194.7895,-31.1948 -74.8231,-3.3506 -149.7328,-3.6914 -224.6123,-3.6084 z"
       id="path4546-6-2-3"
       inkscape:connector-curvature="0"
       sodipodi:nodetypes="cssssssscc" />
    <path
       style="color:#000000;display:inline;overflow:visible;visibility:visible;fill:#ffffff;fill-opacity:1;fill-rule:nonzero;stroke:none;stroke-width:0.999999px;marker:none;enable-background:accumulate"
       d="m 2485.6003,1348.3165 c 74.8419,-44.8703 148.82,-0.8571 155.9094,45.9451 36.723,36.1007 31.9031,-41.1512 31.9031,-41.1512 0,0 4.7438,-17.0874 -4.0747,-24.9227 -26.2762,-23.3478 -94.0991,-69.0641 -183.7378,20.1288 z"
       id="path3072-7-6"
       inkscape:connector-curvature="0"
       sodipodi:nodetypes="cccsc" />
    <path
       style="color:#000000;display:inline;overflow:visible;visibility:visible;fill:#0f0f0f;fill-opacity:1;fill-rule:nonzero;stroke:none;stroke-width:1px;marker:none;enable-background:accumulate"
       d="m 2546.0662,639.46506 c 9.8059,29.26131 -4.631,47.21189 24.1768,69.64249 5.8179,3.75912 35.4198,-0.17066 43.0408,6.24193 7.621,6.41259 7.5356,34.7086 13.3447,37.05618 5.8087,2.34693 36.8329,-12.336 42.5175,-6.70591 5.6848,5.63021 19.7703,49.0961 24.6315,50.50519 4.8614,1.40871 -3.3651,29.25872 69.5303,-4.67276 -52.2055,55.71203 -81.233,28.27455 -88.8542,21.86174 -7.6212,-6.41256 -13.3856,-35.96176 -22.1195,-38.93535 -8.7339,-2.97407 -38.7279,10.45893 -46.3077,2.95202 -7.5798,-7.50694 -9.7612,-27.83123 -9.7612,-27.83123 -8.1996,8.90798 -59.7606,16.87882 -89.4548,-27.63649 -29.694,-44.51494 39.2558,-82.47781 39.2558,-82.47781 z"
       id="path5050-7"
       inkscape:connector-curvature="0"
       sodipodi:nodetypes="cccccccccccsc" />
    <path
       style="color:#000000;display:inline;overflow:visible;visibility:visible;fill:#0f0f0f;fill-opacity:1;fill-rule:nonzero;stroke:none;stroke-width:0.999998px;marker:none;enable-background:accumulate"
       d="m 767.07714,2688.123 c 11.65045,25.2313 2.36755,41.8083 28.40198,60.0061 5.15837,2.9964 50.14558,-1.9772 54.82682,5.6558 4.68113,7.6332 -1.20277,31.0175 2.88761,34.7339 4.09028,3.7158 31.53113,1.0432 34.84881,7.4374 3.31774,6.3944 5.47107,46.6575 9.00815,49.3079 3.53744,2.6503 -8.66344,23.1793 55.69567,17.3698 -52.54907,30.1486 -69.75968,-1.4171 -74.44102,-9.0504 -4.68129,-7.6329 -3.14495,-33.8408 -9.40904,-38.9685 -6.26406,-5.128 -32.63705,-3.1749 -37.06073,-11.7007 -4.42381,-8.5258 -1.96311,-26.0071 -1.96311,-26.0071 -8.28599,4.8655 -54.10091,23.5187 -83.69504,-14.0721 -29.59401,-37.5903 20.8999,-74.7121 20.8999,-74.7121 z"
       id="path5050-7-5"
       inkscape:connector-curvature="0"
       sodipodi:nodetypes="cccccccccccsc" />
    <path
       style="color:#000000;display:inline;overflow:visible;visibility:visible;fill:#ffffff;fill-opacity:1;fill-rule:nonzero;stroke:none;stroke-width:1px;marker:none;enable-background:accumulate"
       d="m 997.08568,957.81299 c 72.42872,-39.67282 87.28602,-133.66248 61.36842,-169.06618 -1.7761,-55.49127 45.0151,-3.25947 45.0151,-3.25947 0,0 13.7357,6.31436 13.6269,19.12279 -0.3238,38.16626 -10.5001,127.66124 -120.01042,153.20286 z"
       id="path3072-7"
       inkscape:connector-curvature="0"
       sodipodi:nodetypes="cccsc" />
  </g>
  <g
     inkscape:groupmode="layer"
     id="layer1"
     inkscape:label="txt">
    <text
       id="shape013"
       krita:useRichText="true"
       text-rendering="auto"
       krita:textVersion="3"
       fill="#000000"
       stroke-opacity="0"
       stroke="#000000"
       stroke-width="0"
       stroke-linecap="square"
       stroke-linejoin="bevel"
       letter-spacing="0"
       text-anchor="middle"
       word-spacing="0"
       style="font-size:123.063px;font-family:'Grand Hotel';text-align:start"
       x="175.27139"
       y="3776.3242"><tspan
         x="588.22894"
         id="tspan1"
         style="stroke-width:0">Mini Fantasy Theater</tspan></text>
    <text
       id="shape2"
       krita:useRichText="true"
       text-rendering="auto"
       krita:textVersion="3"
       fill="#000000"
       stroke-opacity="0"
       stroke="#000000"
       stroke-width="0"
       stroke-linecap="square"
       stroke-linejoin="bevel"
       letter-spacing="0"
       text-anchor="end"
       word-spacing="0"
       style="font-size:73.8377px;font-family:Pangolin;text-align:start"
       x="3040.1685"
       y="3736.7832"><tspan
         x="3680.696"
         id="tspan2"
         style="stroke-width:0">David Revoy</tspan><tspan
         x="3680.696"
         dy="73.837677"
         id="tspan3"
         style="stroke-width:0">www.davidrevoy.com</tspan></text>
    <text
       id="shape21"
       krita:useRichText="true"
       text-rendering="auto"
       krita:textVersion="3"
       fill="#8e8b88"
       stroke-opacity="0"
       stroke="#000000"
       stroke-width="0"
       stroke-linecap="square"
       stroke-linejoin="bevel"
       letter-spacing="0"
       text-anchor="end"
       word-spacing="0"
       style="font-size:45px;line-height:100%;font-family:Pangolin;text-align:start"
       x="1167.5646"
       y="3778.4343"><tspan
         sodipodi:role="line"
         id="tspan9"
         x="1922.5271"
         y="3778.4343"
         style="font-size:45px;line-height:100%;text-align:center;text-anchor:middle"><tspan
           x="1922.5271"
           id="tspan4"
           style="font-size:45px;line-height:100%;text-align:center;text-anchor:middle;stroke-width:0">licenca: Creative Commons Attribution-ShareAlike 4.0 International</tspan></tspan><tspan
         sodipodi:role="line"
         id="tspan10"
         x="1922.5271"
         y="3823.4343"
         style="font-size:45px;line-height:100%;text-align:center;text-anchor:middle">Prevod: fici (predogledna izdaja)</tspan></text>
    <text
       id="shape22"
       krita:useRichText="true"
       text-rendering="auto"
       krita:textVersion="3"
       fill="#828181"
       stroke-opacity="0"
       stroke="#000000"
       stroke-width="0"
       stroke-linecap="square"
       stroke-linejoin="bevel"
       kerning="none"
       letter-spacing="0"
       text-anchor="middle"
       word-spacing="0"
       style="font-size:73.8377px;font-family:'Patrick Hand SC';text-align:start"
       x="1701.0232"
       y="3734.3135"><tspan
         x="1922.2478"
         id="tspan5"
         style="stroke-width:0">Epizoda 2</tspan></text>
    <text
       xml:space="preserve"
       id="text1"
       style="color:#000000;font-weight:bold;font-size:93px;line-height:1;font-family:DeevadHand;-inkscape-font-specification:'DeevadHand Bold';text-decoration:none;text-decoration-line:none;text-decoration-color:#000000;letter-spacing:0px;word-spacing:0px;white-space:pre;shape-inside:url(#rect3);shape-padding:0;display:inline;overflow:visible;opacity:1;fill:#000000;stroke:none;stroke-width:16.169;paint-order:stroke fill markers"
       x="744.83881"
       y="0"
       transform="translate(-224.36302,-411.42807)"><tspan
         x="1078.2153"
         y="915.49414"
         id="tspan12"><tspan
           style="font-weight:normal;-inkscape-font-specification:DeevadHand;text-align:center;text-anchor:middle"
           id="tspan11">O, temačn duh, </tspan></tspan><tspan
         x="1033.9858"
         y="1008.4941"
         id="tspan14"><tspan
           style="font-weight:normal;-inkscape-font-specification:DeevadHand;text-align:center;text-anchor:middle"
           id="tspan13">gospodar želja, </tspan></tspan><tspan
         x="1026.4478"
         y="1101.4941"
         id="tspan47"><tspan
           style="font-weight:normal;-inkscape-font-specification:DeevadHand;text-align:center;text-anchor:middle"
           id="tspan15">priklicujem tee!  </tspan></tspan></text>
    <text
       xml:space="preserve"
       id="text1-1"
       style="color:#000000;font-weight:bold;font-size:93px;line-height:1;font-family:DeevadHand;-inkscape-font-specification:'DeevadHand Bold';text-align:center;text-decoration:none;text-decoration-line:none;text-decoration-color:#000000;letter-spacing:0px;word-spacing:0px;white-space:pre;shape-inside:url(#rect3-9);shape-padding:28.75;display:inline;overflow:visible;fill:#000000;stroke:none;stroke-width:16.169;paint-order:stroke fill markers"
       x="2229.0725"
       y="0"
       transform="translate(1644.0493,339.44364)"><tspan
         x="1035.083"
         y="944.24414"
         id="tspan49"><tspan
   style="font-weight:normal;-inkscape-font-specification:DeevadHand"
   id="tspan48">Želim si pošast </tspan>brez </tspan><tspan
         x="1013.6948"
         y="1037.2441"
         id="tspan51">moralnih zadržkov<tspan
   style="font-weight:normal;-inkscape-font-specification:DeevadHand"
   id="tspan50"> s </tspan></tspan><tspan
         x="1209.0947"
         y="1130.2441"
         id="tspan52">smrtonosno </tspan><tspan
         x="977.09424"
         y="1223.2441"
         id="tspan54">natančnostjo<tspan
   style="font-weight:normal;-inkscape-font-specification:DeevadHand"
   id="tspan53">, </tspan>nočnim </tspan><tspan
         x="1131.0347"
         y="1316.2441"
         id="tspan56">vidom<tspan
   style="font-weight:normal;-inkscape-font-specification:DeevadHand"
   id="tspan55"> in </tspan>ostrimi </tspan><tspan
         x="1277.437"
         y="1409.2441"
         id="tspan58">kremplji<tspan
   style="font-weight:normal;-inkscape-font-specification:DeevadHand"
   id="tspan57">.</tspan></tspan></text>
    <text
       xml:space="preserve"
       id="text1-6"
       style="color:#000000;font-style:normal;font-variant:normal;font-weight:normal;font-stretch:normal;font-size:93px;line-height:1;font-family:DeevadHand;-inkscape-font-specification:DeevadHand;text-decoration:none;text-decoration-line:none;text-decoration-color:#000000;letter-spacing:0px;word-spacing:0px;white-space:pre;shape-inside:url(#rect3-3);display:inline;overflow:visible;fill:#ffffff;stroke:none;stroke-width:16.169;paint-order:stroke fill markers"
       x="491.91986"
       y="0"
       transform="translate(893.91039,-430.32237)"><tspan
         x="1345.2695"
         y="915.49414"
         id="tspan60"><tspan
           style="text-align:center;text-anchor:middle"
           id="tspan59">O, 
</tspan></tspan><tspan
         x="1176.5708"
         y="1008.4941"
         id="tspan62"><tspan
           style="text-align:center;text-anchor:middle"
           id="tspan61">človeček,
</tspan></tspan><tspan
         x="1136.3828"
         y="1101.4941"
         id="tspan64"><tspan
           style="text-align:center;text-anchor:middle"
           id="tspan63">kaj si tako 
</tspan></tspan><tspan
         x="1263.3042"
         y="1194.4941"
         id="tspan66"><tspan
           style="text-align:center;text-anchor:middle"
           id="tspan65">želiš?</tspan></tspan></text>
    <text
       xml:space="preserve"
       id="text1-6-6"
       style="color:#000000;font-weight:bold;font-size:93px;line-height:1;font-family:DeevadHand;-inkscape-font-specification:'DeevadHand Bold';text-align:center;text-decoration:none;text-decoration-line:none;text-decoration-color:#000000;letter-spacing:0px;word-spacing:0px;white-space:pre;display:inline;overflow:visible;fill:#ffffff;stroke:none;stroke-width:16.169;paint-order:stroke fill markers;shape-inside:url(#rect3-3-0)"
       x="457.8642"
       y="0"
       transform="translate(-685.38623,1679.1636)"><tspan
         x="1034.3291"
         y="915.49414"
         id="tspan68"><tspan
           style="font-weight:normal;-inkscape-font-specification:DeevadHand"
           id="tspan67">Tvoja
</tspan></tspan><tspan
         x="924.43652"
         y="1008.4941"
         id="tspan70"><tspan
           style="font-weight:normal;-inkscape-font-specification:DeevadHand"
           id="tspan69">želja, moj 
</tspan></tspan><tspan
         x="1041.5947"
         y="1101.4941"
         id="tspan72"><tspan
           style="font-weight:normal;-inkscape-font-specification:DeevadHand"
           id="tspan71">ukaz.</tspan></tspan></text>
    <text
       xml:space="preserve"
       style="color:#000000;font-weight:bold;font-size:128.883px;line-height:1.55;font-family:DeevadHand;-inkscape-font-specification:'DeevadHand Bold';text-decoration:none;text-decoration-line:none;text-decoration-color:#000000;letter-spacing:0px;word-spacing:0px;overflow:visible;opacity:1;fill:#ffffff;stroke:#b14b13;stroke-width:30.869;stroke-dasharray:none;stroke-opacity:1;paint-order:stroke fill markers"
       x="656.95581"
       y="3746.1035"
       id="text7"
       transform="matrix(0.96353724,-0.46867448,0,1.0378426,0,0)"><tspan
         sodipodi:role="line"
         id="tspan7"
         x="656.95581"
         y="3746.1035"
         style="stroke:#b14b13;stroke-width:30.869;stroke-dasharray:none;stroke-opacity:1"><tspan
   style="font-size:144.013px;stroke-width:30.869"
   id="tspan6">D</tspan>zi<tspan
   style="font-size:121.318px;stroke-width:30.869"
   id="tspan8">o</tspan>! </tspan></text>
  </g>
</svg>
